{
  "data": [
    {
      "category": "3.10",
      "date": "2024-09",
      "downloads": 2
    },
    {
      "category": "3.10",
      "date": "2024-10",
      "downloads": 2
    },
    {
      "category": "3.10",
      "date": "2024-12",
      "downloads": 2
    },
    {
      "category": "3.10",
      "date": "2025-02",
      "downloads": 1
    },
    {
      "category": "3.12",
      "date": "2024-08",
      "downloads": 2
    },
    {
      "category": "3.8",
      "date": "2024-11",
      "downloads": 2
    },
    {
      "category": "3.9",
      "date": "2024-08",
      "downloads": 1
    },
    {
      "category": "3.9",
      "date": "2024-10",
      "downloads": 4
    },
    {
      "category": "3.9",
      "date": "2024-11",
      "downloads": 2
    },
    {
      "category": "null",
      "date": "2024-08",
      "downloads": 4
    },
    {
      "category": "null",
      "date": "2024-09",
      "downloads": 52
    },
    {
      "category": "null",
      "date": "2024-10",
      "downloads": 111
    },
    {
      "category": "null",
      "date": "2024-11",
      "downloads": 54
    },
    {
      "category": "null",
      "date": "2024-12",
      "downloads": 40
    },
    {
      "category": "null",
      "date": "2025-01",
      "downloads": 98
    },
    {
      "category": "null",
      "date": "2025-02",
      "downloads": 65
    }
  ],
  "package": "tekstialue",
  "type": "python_minor_downloads"
}
